Individual Report
…
registration_activity_duplicates <- registration_activity %>%
  count(City) %>%
  filter(n > 1)

# View duplicates
print("EV Population Duplicates:")

[1] "EV Population Duplicates:"

Code

print(ev_population_duplicates)

# A tibble: 514 × 2
   City               n
   <chr>          <int>
 1 Aberdeen         200
 2 Acme              10
 3 Addy               4
 4 Airway Heights    45
 5 Alameda            2
 6 Alexandria         6
 7 Algona            45
 8 Allyn             89
 9 Almira             2
10 Amanda Park        3
# ℹ 504 more rows

Code

print("Charging Stations Duplicates:")

[1] "Charging Stations Duplicates:"

Code

print(charging_stations_duplicates)

# A tibble: 66 × 2
   City              n
   <chr>         <int>
 1 Berlin            2
 2 Bethel            2
 3 Bloomfield        2
 4 Branford          6
 5 Bridgeport        5
 6 Cheshire          2
 7 Coventry          2
 8 Danbury          12
 9 Darien            8
10 East Hartford     5
# ℹ 56 more rows

Code

print("Registration Activity Duplicates:")

[1] "Registration Activity Duplicates:"

Code

print(registration_activity_duplicates)

# A tibble: 1,071 × 2
   City                        n
   <chr>                   <int>
 1 ABERDEEN                 1053
 2 ABERDEEN PROVING GROUND     4
 3 ACME                       63
 4 ADA                         4
 5 ADAIRSVILLE                 4
 6 ADDY                       25
 7 ADNA                        2
 8 AIRWAY HEIGHTS            321
 9 ALAMEDA                    10
10 ALBANY                      6
# ℹ 1,061 more rows
…
