Electoral College Project - MiniProject #04 – STA 9750 2024 Submission Material
…
# Filter and summarize the seat counts
seat_changes <- house_data %>%
  filter(year %in% c(1976, 2022)) %>%
  group_by(state, year) %>%
  summarise(seat_count = n_distinct(district), .groups = 'drop') %>%
  pivot_wider(names_from = year, values_from = seat_count, names_prefix = "year_") %>%
  mutate(seat_change = year_2022 - year_1976) %>%
  arrange(desc(seat_change))

# Display the result
print(seat_changes)

# A tibble: 50 × 4
   state          year_1976 year_2022 seat_change
   <chr>              <int>     <int>       <int>
 1 TEXAS                 24        38          14
 2 FLORIDA               15        28          13
 3 CALIFORNIA            43        52           9
 4 ARIZONA                4         9           5
 5 GEORGIA               10        14           4
 6 COLORADO               5         8           3
 7 NEVADA                 1         4           3
 8 NORTH CAROLINA        11        14           3
 9 WASHINGTON             7        10           3
10 OREGON                 4         6           2
# ℹ 40 more rows
…
